MICROELETRONICA-OPTATIVA/TRABALHOS/atividade-vhdl/atividade3/2/simulation/qsim/n_infinito_with_when_and_generate.msim.vcd
$comment
	File created using the following command:
		vcd file n_infinito_with_when_and_generate.msim.vcd -direction
$end
$date
	Mon Jun 13 23:00:42 2022
$end
$version
	ModelSim Version 10.1d
$end
$timescale
	1ps
$end
$scope module address_decoder_vlg_vec_tst $end
$var reg 6 ! x [5:0] $end
$var wire 1 " y [63] $end
$var wire 1 # y [62] $end
$var wire 1 $ y [61] $end
$var wire 1 % y [60] $end
$var wire 1 & y [59] $end
$var wire 1 ' y [58] $end
$var wire 1 ( y [57] $end
$var wire 1 ) y [56] $end
$var wire 1 * y [55] $end
$var wire 1 + y [54] $end
$var wire 1 , y [53] $end
$var wire 1 - y [52] $end
$var wire 1 . y [51] $end
$var wire 1 / y [50] $end
$var wire 1 0 y [49] $end
$var wire 1 1 y [48] $end
$var wire 1 2 y [47] $end
$var wire 1 3 y [46] $end
$var wire 1 4 y [45] $end
$var wire 1 5 y [44] $end
$var wire 1 6 y [43] $end
$var wire 1 7 y [42] $end
$var wire 1 8 y [41] $end
$var wire 1 9 y [40] $end
$var wire 1 : y [39] $end
$var wire 1 ; y [38] $end
$var wire 1 < y [37] $end
$var wire 1 = y [36] $end
$var wire 1 > y [35] $end
$var wire 1 ? y [34] $end
$var wire 1 @ y [33] $end
$var wire 1 A y [32] $end
$var wire 1 B y [31] $end
$var wire 1 C y [30] $end
$var wire 1 D y [29] $end
$var wire 1 E y [28] $end
$var wire 1 F y [27] $end
$var wire 1 G y [26] $end
$var wire 1 H y [25] $end
$var wire 1 I y [24] $end
$var wire 1 J y [23] $end
$var wire 1 K y [22] $end
$var wire 1 L y [21] $end
$var wire 1 M y [20] $end
$var wire 1 N y [19] $end
$var wire 1 O y [18] $end
$var wire 1 P y [17] $end
$var wire 1 Q y [16] $end
$var wire 1 R y [15] $end
$var wire 1 S y [14] $end
$var wire 1 T y [13] $end
$var wire 1 U y [12] $end
$var wire 1 V y [11] $end
$var wire 1 W y [10] $end
$var wire 1 X y [9] $end
$var wire 1 Y y [8] $end
$var wire 1 Z y [7] $end
$var wire 1 [ y [6] $end
$var wire 1 \ y [5] $end
$var wire 1 ] y [4] $end
$var wire 1 ^ y [3] $end
$var wire 1 _ y [2] $end
$var wire 1 ` y [1] $end
$var wire 1 a y [0] $end
$var wire 1 b sampler $end
$scope module i1 $end
$var wire 1 c gnd $end
$var wire 1 d vcc $end
$var wire 1 e unknown $end
$var tri1 1 f devclrn $end
$var tri1 1 g devpor $end
$var tri1 1 h devoe $end
$var wire 1 i y[0]~output_o $end
$var wire 1 j y[1]~output_o $end
$var wire 1 k y[2]~output_o $end
$var wire 1 l y[3]~output_o $end
$var wire 1 m y[4]~output_o $end
$var wire 1 n y[5]~output_o $end
$var wire 1 o y[6]~output_o $end
$var wire 1 p y[7]~output_o $end
$var wire 1 q y[8]~output_o $end
$var wire 1 r y[9]~output_o $end
$var wire 1 s y[10]~output_o $end
$var wire 1 t y[11]~output_o $end
$var wire 1 u y[12]~output_o $end
$var wire 1 v y[13]~output_o $end
$var wire 1 w y[14]~output_o $end
$var wire 1 x y[15]~output_o $end
$var wire 1 y y[16]~output_o $end
$var wire 1 z y[17]~output_o $end
$var wire 1 { y[18]~output_o $end
$var wire 1 | y[19]~output_o $end
$var wire 1 } y[20]~output_o $end
$var wire 1 ~ y[21]~output_o $end
$var wire 1 !! y[22]~output_o $end
$var wire 1 "! y[23]~output_o $end
$var wire 1 #! y[24]~output_o $end
$var wire 1 $! y[25]~output_o $end
$var wire 1 %! y[26]~output_o $end
$var wire 1 &! y[27]~output_o $end
$var wire 1 '! y[28]~output_o $end
$var wire 1 (! y[29]~output_o $end
$var wire 1 )! y[30]~output_o $end
$var wire 1 *! y[31]~output_o $end
$var wire 1 +! y[32]~output_o $end
$var wire 1 ,! y[33]~output_o $end
$var wire 1 -! y[34]~output_o $end
$var wire 1 .! y[35]~output_o $end
$var wire 1 /! y[36]~output_o $end
$var wire 1 0! y[37]~output_o $end
$var wire 1 1! y[38]~output_o $end
$var wire 1 2! y[39]~output_o $end
$var wire 1 3! y[40]~output_o $end
$var wire 1 4! y[41]~output_o $end
$var wire 1 5! y[42]~output_o $end
$var wire 1 6! y[43]~output_o $end
$var wire 1 7! y[44]~output_o $end
$var wire 1 8! y[45]~output_o $end
$var wire 1 9! y[46]~output_o $end
$var wire 1 :! y[47]~output_o $end
$var wire 1 ;! y[48]~output_o $end
$var wire 1 <! y[49]~output_o $end
$var wire 1 =! y[50]~output_o $end
$var wire 1 >! y[51]~output_o $end
$var wire 1 ?! y[52]~output_o $end
$var wire 1 @! y[53]~output_o $end
$var wire 1 A! y[54]~output_o $end
$var wire 1 B! y[55]~output_o $end
$var wire 1 C! y[56]~output_o $end
$var wire 1 D! y[57]~output_o $end
$var wire 1 E! y[58]~output_o $end
$var wire 1 F! y[59]~output_o $end
$var wire 1 G! y[60]~output_o $end
$var wire 1 H! y[61]~output_o $end
$var wire 1 I! y[62]~output_o $end
$var wire 1 J! y[63]~output_o $end
$var wire 1 K! x[5]~input_o $end
$var wire 1 L! x[4]~input_o $end
$var wire 1 M! x[3]~input_o $end
$var wire 1 N! x[2]~input_o $end
$var wire 1 O! Equal0~0_combout $end
$var wire 1 P! x[0]~input_o $end
$var wire 1 Q! x[1]~input_o $end
$var wire 1 R! Equal0~1_combout $end
$var wire 1 S! Equal0~2_combout $end
$var wire 1 T! Equal0~3_combout $end
$var wire 1 U! Equal0~4_combout $end
$var wire 1 V! Equal0~5_combout $end
$var wire 1 W! Equal0~6_combout $end
$var wire 1 X! Equal0~7_combout $end
$var wire 1 Y! Equal0~8_combout $end
$var wire 1 Z! Equal0~9_combout $end
$var wire 1 [! Equal0~10_combout $end
$var wire 1 \! Equal0~11_combout $end
$var wire 1 ]! Equal0~12_combout $end
$var wire 1 ^! Equal0~13_combout $end
$var wire 1 _! Equal0~14_combout $end
$var wire 1 `! Equal0~15_combout $end
$var wire 1 a! Equal0~16_combout $end
$var wire 1 b! Equal0~17_combout $end
$var wire 1 c! Equal0~18_combout $end
$var wire 1 d! Equal0~19_combout $end
$var wire 1 e! Equal0~20_combout $end
$var wire 1 f! Equal0~21_combout $end
$var wire 1 g! Equal0~22_combout $end
$var wire 1 h! Equal0~23_combout $end
$var wire 1 i! Equal0~24_combout $end
$var wire 1 j! Equal0~25_combout $end
$var wire 1 k! Equal0~26_combout $end
$var wire 1 l! Equal0~27_combout $end
$var wire 1 m! Equal0~28_combout $end
$var wire 1 n! Equal0~29_combout $end
$var wire 1 o! Equal0~30_combout $end
$var wire 1 p! Equal0~31_combout $end
$var wire 1 q! Equal0~32_combout $end
$var wire 1 r! Equal0~33_combout $end
$var wire 1 s! Equal0~34_combout $end
$var wire 1 t! Equal0~35_combout $end
$var wire 1 u! Equal0~36_combout $end
$var wire 1 v! Equal0~37_combout $end
$var wire 1 w! Equal0~38_combout $end
$var wire 1 x! Equal0~39_combout $end
$var wire 1 y! Equal0~40_combout $end
$var wire 1 z! Equal0~41_combout $end
$var wire 1 {! Equal0~42_combout $end
$var wire 1 |! Equal0~43_combout $end
$var wire 1 }! Equal0~44_combout $end
$var wire 1 ~! Equal0~45_combout $end
$var wire 1 !" Equal0~46_combout $end
$var wire 1 "" Equal0~47_combout $end
$var wire 1 #" Equal0~48_combout $end
$var wire 1 $" Equal0~49_combout $end
$var wire 1 %" Equal0~50_combout $end
$var wire 1 &" Equal0~51_combout $end
$var wire 1 '" Equal0~52_combout $end
$var wire 1 (" Equal0~53_combout $end
$var wire 1 )" Equal0~54_combout $end
$var wire 1 *" Equal0~55_combout $end
$var wire 1 +" Equal0~56_combout $end
$var wire 1 ," Equal0~57_combout $end
$var wire 1 -" Equal0~58_combout $end
$var wire 1 ." Equal0~59_combout $end
$var wire 1 /" Equal0~60_combout $end
$var wire 1 0" Equal0~61_combout $end
$var wire 1 1" Equal0~62_combout $end
$var wire 1 2" Equal0~63_combout $end
$var wire 1 3" Equal0~64_combout $end
$var wire 1 4" Equal0~65_combout $end
$var wire 1 5" Equal0~66_combout $end
$var wire 1 6" Equal0~67_combout $end
$var wire 1 7" Equal0~68_combout $end
$var wire 1 8" Equal0~69_combout $end
$var wire 1 9" Equal0~70_combout $end
$var wire 1 :" Equal0~71_combout $end
$var wire 1 ;" Equal0~72_combout $end
$var wire 1 <" Equal0~73_combout $end
$var wire 1 =" Equal0~74_combout $end
$var wire 1 >" Equal0~75_combout $end
$var wire 1 ?" Equal0~76_combout $end
$var wire 1 @" Equal0~77_combout $end
$var wire 1 A" Equal0~78_combout $end
$var wire 1 B" Equal0~79_combout $end
$upscope $end
$upscope $end
$enddefinitions $end
#0
$dumpvars
b0 !
1a
0`
0_
0^
0]
0\
0[
0Z
0Y
0X
0W
0V
0U
0T
0S
0R
0Q
0P
0O
0N
0M
0L
0K
0J
0I
0H
0G
0F
0E
0D
0C
0B
0A
0@
0?
0>
0=
0<
0;
0:
09
08
07
06
05
04
03
02
01
00
0/
0.
0-
0,
0+
0*
0)
0(
0'
0&
0%
0$
0#
0"
xb
0c
1d
xe
1f
1g
1h
1i
0j
0k
0l
0m
0n
0o
0p
0q
0r
0s
0t
0u
0v
0w
0x
0y
0z
0{
0|
0}
0~
0!!
0"!
0#!
0$!
0%!
0&!
0'!
0(!
0)!
0*!
0+!
0,!
0-!
0.!
0/!
00!
01!
02!
03!
04!
05!
06!
07!
08!
09!
0:!
0;!
0<!
0=!
0>!
0?!
0@!
0A!
0B!
0C!
0D!
0E!
0F!
0G!
0H!
0I!
0J!
0K!
0L!
0M!
0N!
1O!
0P!
0Q!
1R!
0S!
0T!
0U!
0V!
0W!
0X!
0Y!
0Z!
0[!
0\!
0]!
0^!
0_!
0`!
0a!
0b!
0c!
0d!
0e!
0f!
0g!
0h!
0i!
0j!
0k!
0l!
0m!
0n!
0o!
0p!
0q!
0r!
0s!
0t!
0u!
0v!
0w!
0x!
0y!
0z!
0{!
0|!
0}!
0~!
0!"
0""
0#"
0$"
0%"
0&"
0'"
0("
0)"
0*"
0+"
0,"
0-"
0."
0/"
00"
01"
02"
03"
04"
05"
06"
07"
08"
09"
0:"
0;"
0<"
0="
0>"
0?"
0@"
0A"
0B"
$end
#100000
b1 !
1P!
0b
1S!
0R!
1j
0i
1`
0a
#200000
b11 !
b10 !
0P!
1Q!
1b
1T!
0S!
1k
0j
1_
0`
#300000
b11 !
1P!
0b
1U!
0T!
1l
0k
1^
0_
#400000
b111 !
b101 !
b100 !
0P!
0Q!
1N!
1b
1V!
0O!
0U!
1R!
0l
1i
0^
1a
1W!
0R!
1m
0i
1]
0a
#500000
b101 !
1P!
0b
1X!
0W!
1n
0m
1\
0]
#600000
b111 !
b110 !
0P!
1Q!
1b
1Y!
0X!
1o
0n
1[
0\
#700000
b111 !
1P!
0b
1Z!
0Y!
1p
0o
1Z
0[
#800000
b11 !
b1 !
b0 !
0P!
0Q!
0N!
1b
0V!
1O!
0Z!
1W!
0p
1m
0Z
1]
0W!
1R!
0m
1i
0]
1a
#900000
b1 !
1P!
0b
1S!
0R!
1j
0i
1`
0a
