MICROELETRONICA-OPTATIVA/TRABALHOS/atividade-vhdl/atividade3/1/simulation/qsim/n_3_with_when.msim.vcd
$comment
	File created using the following command:
		vcd file n_3_with_when.msim.vcd -direction
$end
$date
	Mon Jun 13 22:56:26 2022
$end
$version
	ModelSim Version 10.1d
$end
$timescale
	1ps
$end
$scope module address_decoder_vlg_vec_tst $end
$var reg 3 ! x [2:0] $end
$var wire 1 " y [7] $end
$var wire 1 # y [6] $end
$var wire 1 $ y [5] $end
$var wire 1 % y [4] $end
$var wire 1 & y [3] $end
$var wire 1 ' y [2] $end
$var wire 1 ( y [1] $end
$var wire 1 ) y [0] $end
$var wire 1 * sampler $end
$scope module i1 $end
$var wire 1 + gnd $end
$var wire 1 , vcc $end
$var wire 1 - unknown $end
$var tri1 1 . devclrn $end
$var tri1 1 / devpor $end
$var tri1 1 0 devoe $end
$var wire 1 1 y[0]~output_o $end
$var wire 1 2 y[1]~output_o $end
$var wire 1 3 y[2]~output_o $end
$var wire 1 4 y[3]~output_o $end
$var wire 1 5 y[4]~output_o $end
$var wire 1 6 y[5]~output_o $end
$var wire 1 7 y[6]~output_o $end
$var wire 1 8 y[7]~output_o $end
$var wire 1 9 x[2]~input_o $end
$var wire 1 : x[0]~input_o $end
$var wire 1 ; x[1]~input_o $end
$var wire 1 < Equal6~0_combout $end
$var wire 1 = Equal6~1_combout $end
$var wire 1 > Equal6~2_combout $end
$var wire 1 ? Equal6~3_combout $end
$var wire 1 @ Equal6~4_combout $end
$var wire 1 A y~0_combout $end
$var wire 1 B Equal6~5_combout $end
$var wire 1 C y~1_combout $end
$upscope $end
$upscope $end
$enddefinitions $end
#0
$dumpvars
b0 !
1)
0(
0'
0&
0%
0$
0#
0"
x*
0+
1,
x-
1.
1/
10
11
02
03
04
05
06
07
08
09
0:
0;
1<
0=
0>
0?
0@
0A
0B
1C
$end
#100000
b1 !
1:
0*
1=
0<
12
01
1(
0)
#200000
b11 !
b10 !
0:
1;
1*
1>
0=
13
02
1'
0(
#300000
b11 !
1:
0*
1?
0>
14
03
1&
0'
#400000
b111 !
b101 !
b100 !
0:
0;
19
1*
1@
0?
15
04
1%
0&
#500000
b101 !
1:
0*
1A
0@
16
05
1$
0%
#600000
b111 !
b110 !
0:
1;
1*
1B
0A
17
06
1#
0$
#700000
b111 !
1:
0*
0C
0B
18
07
1"
0#
#800000
b11 !
b1 !
b0 !
0:
0;
09
1*
1C
1<
08
11
0"
1)
#900000
b1 !
1:
0*
1=
0<
12
01
1(
0)
